{
  "projectType": "library",
  "root": "libs/issues",
  "sourceRoot": "libs/issues/src",
  "prefix": "ap",
  "targets": {
    "test": {
      "executor": "@nrwl/jest:jest",
      "outputs": ["coverage/libs/issues"],
      "options": {
        "jestConfig": "libs/issues/jest.config.js",
        "passWithNoTests": true
      }
    },
    "lint": {
      "executor": "@nrwl/linter:eslint",
      "options": {
        "lintFilePatterns": ["libs/issues/src/**/*.ts", "libs/issues/src/**/*.html"]
      }
    }
  },
  "tags": []
}
